{
    "titles": [
        "Aqua Admiral Daylight",
        "Asassin Play Sanctuary Beta",
        "Barbaric Otojiro",
        "Curious Honey Boy Guys",
        "Dance Mistress Police",
        "Devilish Joke Warrior Hunters",
        "Future Jets",
        "Gender Miss Giant",
        "Heavenly Robot Virgin Tritons",
        "Heroic Minute Runes",
        "Joke Candy",
        "Journey Blades",
        "Major Handsome Lady Neko",
        "Marine Power Priestesses",
        "Marionnete Espers",
        "Neo Energized Mobile Oblivion",
        "Project Pi",
        "Romance Eggs",
        "Secret Magician Squadron",
        "Sonnet Beats",
        "Spirit Master Battler Armor",
        "Thunder Brain",
        "Trinity Boys",
        "Turbo Phantom Formula",
        "Variable Mutant Hades",
        "Captain Area",
        "Child Terror Bebop",
        "Collector Prince",
        "Detective Mind",
        "Dream Idols",
        "Fatality Psycho Advancer",
        "Formula Giant Nun C",
        "Full Space Ronin Nanami",
        "Half Gamer Phantom Trucks",
        "Hell Monster Princesses",
        "Idiot Battleship",
        "Last Mermaids Priestess",
        "Lord Lover",
        "Major Bad Justice Rock",
        "Neo Riding God Kaori",
        "Peach Ghost Victor Phoenixes",
        "Princess Animals",
        "Report Seeker Priest Twilight",
        "Romance Detonators",
        "Serial Truck",
        "Their Female Mind Mermaids Four",
        "Their Sonic Hallucination Advancers",
        "Ultimate Battle Revelations",
        "Universal Gender Tracers",
        "Virtual Gladiators Power",
        "Admiral Sherrif",
        "Agent Bounty",
        "Amazing Jumping Heaven Road Drei",
        "Beam Phantom Crusader Showdown",
        "Captain Rune",
        "Dark Play Tausend",
        "Detective Rune",
        "Experiment Apple",
        "Express Alchemist Outlaws",
        "Future Climber Eliminators",
        "Galactic Queen Tracer Hajime",
        "Giant Musical Priestess",
        "Gorgeous Boy Priestess",
        "Initial Police Campus H",
        "Miracle Stalkers",
        "Neo Gyro Music Magic K",
        "Neo Pretty Alliance Revelations",
        "Past Skippers",
        "Priestess Signal",
        "Rage Battler",
        "Romance Idiot Thief",
        "Sailor Idol Ogres",
        "Sanctuary Illuminator Mistress Dream",
        "Variable Lost Skill Psi",
        "Wonder Professor Mortals",
        "All-Purpose General Animal Yayoi",
        "Armor Twilight",
        "Automation Diver Detective Skill",
        "Best Romance Mermaids Nurse",
        "Big Prince Fist",
        "Complete Card Formula",
        "Cutey Sherrif Thief Ise",
        "Date Army Espers",
        "Force Cybernetics",
        "Forest Machines",
        "Future Crusader Aleph",
        "Future Dreamer Searphim",
        "Great Dark Mistress Signal Sechs",
        "His Alliance Rho",
        "Maze Professor Collectors",
        "Messiah Lake One-Hundred",
        "Miss God Stalkers",
        "Monster Queen",
        "Our Strike Blades",
        "Space Revelations"
    ],
    "tropes": [
        "Sunny Sunflower Disposition",
        "Conspiracy Kitchen Sink",
        "Two Faced",
        "Good Angel Bad Angel",
        "Stewed Alive",
        "Film Noir",
        "Symbolic Blood",
        "Villainesses Want Heroes",
        "Nuclear Candle",
        "Convenient Terminal Illness",
        "The Strength Of Ten Men",
        "Mini Dress Of Power",
        "Hyperspace",
        "Impeded Messenger",
        "Evil Is Sexy",
        "Big No",
        "Flowery Elizabethan English",
        "Evil Eyebrows",
        "Drunk Driver",
        "Entitled Bastard",
        "Blindfolded Trip",
        "Mindlink Mates",
        "Sempai Kohai",
        "Shoulder Cannon",
        "The Man Behind The Curtain",
        "Death Faked For You",
        "Space Cold War",
        "Animate Inanimate Object",
        "The Commies Made Me Do It",
        "Feudal Overlord",
        "Power Is Sexy",
        "Signature Team Transport",
        "Office",
        "Ambiguous Clone Ending",
        "After The End",
        "On Ice",
        "Ring Of Power",
        "Combat Clairvoyance",
        "Talking Down The Suicidal",
        "Only The Leads Get A Happy Ending",
        "Volcanic Veins",
        "Happy Fun Ball",
        "Incendiary Exponent",
        "Bouquet Toss",
        "Brooding Boy Gentle Girl",
        "Reckless Sidekick",
        "The Something Force",
        "Not That Kind Of Doctor",
        "Fallen Angel",
        "Jury Duty",
        "Ironic Name",
        "Hazy Feel Turn",
        "Shoot The Messenger",
        "Dreaming Of AWhite Christmas",
        "Delivery Stork",
        "Themed Harem",
        "Lovely Assistant",
        "Fan Edit",
        "Heroic Willpower",
        "Third Eye",
        "All According To Plan",
        "Psycho For Hire",
        "Sour Outside Sad Inside",
        "Not Growing Up Sucks",
        "Fan Girl",
        "Mandatory Unretirement",
        "Inept Aptitude Test",
        "It Sucks To Be The Chosen One",
        "Slumming It",
        "Mega Corp",
        "Bearer Of Bad News",
        "Hack The Traffic Lights",
        "Coming In Hot",
        "Humble Hero",
        "Phlebotinum Rebel",
        "Improbable Weapon User",
        "Win Win Ending",
        "Name Face Name",
        "Priceless Ming Vase",
        "The Cover Changes The Gender",
        "Domed Hometown",
        "Nested Mouths",
        "Our Wormholes Are Different",
        "Enemy Within",
        "Sherlock Homage",
        "No Such Thing As Bad Publicity",
        "Double Tap",
        "Just A Kid",
        "Professional Gambler",
        "Creepy Uncle",
        "All Loving Hero",
        "Our Zombies Are Different",
        "Starving Student",
        "The Doll Episode",
        "Badass Native",
        "Almost Kiss",
        "Mistaken For Own Murderer",
        "Acid Pool",
        "Blood From Every Orifice",
        "Star Spangled Spandex",
        "Love Potion",
        "Calling The Old Man Out",
        "Appease The Volcano God",
        "Battle Boomerang",
        "Lost Colony",
        "Hauled Before A Senate Sub Committee",
        "Murder By Cremation",
        "Action Duo",
        "Amusing Injuries",
        "Playful Hacker",
        "Your Son All Along",
        "Team Pet",
        "Experiment Show",
        "Macho Masochism",
        "Xanatos Gambit",
        "Going For The Big Scoop",
        "Custom Uniform Of Sexy",
        "Bigger Is Better",
        "Platonic Life Partners",
        "Challenge Seeker",
        "By the Power of Grayskull",
        "Magical Girls",
        "Hot Springs Episode",
        "Human/Animal Hybrid",
        "Crossdresser Character",
        "Breaking the Fourth Wall",
        "Boy Falls onto Girl's Chest",
        "Unwanted Glomping",
        "Foreignor Character",
        "Childhood Friend",
        "Ultimate Form",
        "Giant Robot",
        "Harem",
        "Magical Skirt",
        "Adorable Mascot",
        "'I just want to be normal.'",
        "Tragic Backstory",
        "Nosebleed",
        "Running Late With Toast in Your Mouth",
        "Surprise Hero",
        "Mystical Animal Companion",
        "Manic Pixie Love Interest",
        "Inexplicable Romance",
        "Exotic Character is So Exotic",
        "Love Triangle",
        "Emotion-Controlled Eye Color",
        "Wise Elder",
        "DRAGONS",
        "Secret Child",
        "Rivals to Lovers",
        "Accidental Baby Acquisition"
    ]
}

