{
    "titles": [
        "Actor ~ Archivist",
        "Agents' Servant Silks",
        "Alluring Twilight",
        "Amazing Detective",
        "Android's Leather Ribbon",
        "Artist After Chains",
        "Assassin's Artificial Beast",
        "Assassin's Beautiful Novels",
        "Barbarian Traders",
        "Beast Church",
        "Beast's Breeze",
        "Beastly Chance",
        "Bejeweled Need",
        "Bound Brilliance",
        "Breaker's Adventurer Distance",
        "Candied Rascal",
        "Candies With Brilliance",
        "Champion's Conquering Detective",
        "Chance Gallantry Of Laughter",
        "Clone X Adventurer",
        "Clones' Agents",
        "Conquered Longing",
        "Cosmic Mentors Or Ambassadors",
        "Curse With Passion",
        "Cyborg's Mythical Twilight",
        "Cyborgs' Musician Justice",
        "Dancer And Emblems",
        "Dancer Of Justice",
        "Dancers' Entrancing Artist",
        "Dangerous Cyberpunk",
        "Daring Kissing",
        "Daring Song",
        "Dates After Craving",
        "Demonologist's Irrepressible Ring",
        "Desire Of Twilight",
        "Desireable Sanctuaries",
        "Desires Or Chains",
        "Detective After Longing",
        "Detective Need Before Inspiration",
        "Detectives' Affair",
        "Devilish Conjurer",
        "Diamond Cake",
        "Doctor Before Factories",
        "Dresses Before Modes",
        "Drivers' Outlaw Glasses",
        "Electronic Paladins",
        "Exorcist / Rascal",
        "Exorcist's Philosophy",
        "Fantastic Lust Before Good",
        "Fatal Destinies",
        "Foolish Drug",
        "Glass Promises Of Homes",
        "Gold Tuxedoes After Gems",
        "Good Beams Of Poems",
        "Gorgeous Flower",
        "Great Ribbons Or Epics",
        "Handsome + Silken",
        "Harems And Epics",
        "Heart's Astrologer's Tatoo",
        "Heart's Dramatic Home",
        "Heart's Seraphic Detective",
        "Heart's Teacher's Gallantry",
        "Heavenly Clerics",
        "Heavenly Touches",
        "High Dress",
        "High Poet",
        "Hunter : Noble",
        "Immoral Gamblers With Mercenaries",
        "Immortal Future Before Drama",
        "Irrational Captor",
        "Jeweled Conquered",
        "Joyous Beds",
        "Kiss After Passion",
        "Leader's Lover",
        "Leaders' Wine",
        "Leather Wines With Plays",
        "Legal - Alien",
        "Librarian's Romance",
        "Living Paladin",
        "Longing And Pleasure",
        "Loving Hunter",
        "Magic Outlaws",
        "Magician's Chance",
        "Marines' Great Love",
        "Mentor With Destinies",
        "Miner's Entrancing Necromancer",
        "Miner's Servant Brilliance",
        "Mortal Hotel Before Gallantry",
        "Mortal Sanctuaries Before Journies",
        "Mortal's Whisper",
        "Musician Sonnets And Kisses",
        "My Adventurers' Watcher",
        "My Exorcist's Hotel",
        "My Poet Fortune-tellers",
        "Necromantic Night",
        "Newscaster's Dramatic Curses",
        "Nocturnal Loved",
        "Novelist's Beloved",
        "Oblivious Pleasure Of Ragnarok",
        "Our Blushing Hunters",
        "Our Candy Restraunts",
        "Our Detective's Jewel",
        "Our Hacker's Beast",
        "Our Nobles' Explorers",
        "Our Nocturnal Light",
        "Our Soldiers' Clones",
        "Paladins : Demonologists",
        "Philosophical Castles Or Hearts",
        "Pirate Romance",
        "Planetary Bard",
        "Poets With Outlaws",
        "Poets' Rogue Lover",
        "Professor's Handsome Journies",
        "Professors' Broken Need",
        "Promised Nocturnal",
        "Rascals Of Necromancers",
        "Reasons Or Longing",
        "Reporters' Dangerous Teachers",
        "Repressed Smuggler",
        "Robot Restraunts Of Longing",
        "Rogue Lonliness",
        "Rogues' Necromancers",
        "Sailors' Pleasure",
        "Sapphire Desire",
        "Secretary's Seductive Professors",
        "Seekers' Nobles",
        "Seer's Sailor Cleric",
        "Servant Joy",
        "Servant X Leader",
        "Song Before Longing",
        "Spell After Romances",
        "Spells With Needs",
        "Spy Peasants",
        "Spy's Whispering Soldiers",
        "Super Spells",
        "Surgeon After Cakes",
        "Surgeon's Night Driver",
        "Sweet Agents",
        "Technician - Beast",
        "Their Adventurers",
        "Their Peasants' Dance",
        "Their Ribbons",
        "Their Rival Architect",
        "Thieves Or Bards",
        "Thieves' Poetic Tatoos",
        "Traitor Or Roses",
        "Vulnerable Soldier",
        "Watchers' Tatoo",
        "Whisper Or Flight",
        "Wine Of Romance"
    ],
    "tropes": [
        "Accidental Baby Acquisition",
        "Accidental Marriage",
        "Accidental Pornomancer",
        "Adorable Abomination",
        "Aggressive Submissive",
        "Alien Blood",
        "All Anime Is Naughty Tentacles",
        "Ambiguously Gay",
        "Angel Devils and Squid",
        "Arranged Marriage",
        "As The Good Book Says",
        "Bait and Switch Lesbians",
        "Big Brother Worship",
        "Bleached Underpants",
        "Blush Sticker",
        "Body Horror",
        "Bread Eggs Milk Squick",
        "Brother Sister Incest",
        "But I Cant Be Pregnant",
        "But Thou Must",
        "By The Power Of Grayskull",
        "Caught With Your Pants Down",
        "Circumcision Angst",
        "Clock",
        "Combat Tentacles",
        "Corrupt The Cutie",
        "Covers Always Lie",
        "Cut The Juice",
        "Dan Green",
        "Dark Fic",
        "Date Rape",
        "Detachable Penis",
        "Discount Lesbians",
        "Do Anything Robot",
        "Dumb Blonde",
        "Electric Instant Gratification",
        "Everbody Has Lots Of Sex",
        "Everybody Wants The Hermaphrodite",
        "Fade To White",
        "Faking Amnesia",
        "Fetish Fuel",
        "Filth",
        "Freaking Friday",
        "Funbag Airbag",
        "Gag Penis",
        "Girl In A Box",
        "Glad To Be Alive Sex",
        "Half Dressed Cartoon Animal",
        "Handsome Lech",
        "Hermaphrodite",
        "Honey Trap",
        "Horny Devils",
        "Horse",
        "Hot Teacher",
        "Hotter and Sexier",
        "IKEA Erotica",
        "Its Not Porn Its Art",
        "Kill Em All",
        "Kinky Cuffs",
        "Lemon",
        "Looks Like She's Enjoying It",
        "Love Hotels",
        "Love Is In The Air",
        "Lust Object",
        "Make A Slave",
        "Male Frontal Nudity",
        "Man I Feel Like A Woman",
        "Mood Whiplash",
        "More Than Mind Control",
        "Ms Fanservice",
        "My Girlfriend Is The President",
        "Naked On Arrival",
        "Naughty Nurse Outfit",
        "Needs More Love",
        "Nicholas Cage",
        "No Except Yes",
        "Old Shame",
        "Opposite Sex Clone",
        "Orifice Invasion",
        "Parallel Porn Titles",
        "Pedophile Priest",
        "Pit Girls",
        "Playboy Bunny",
        "Police Are Useless",
        "Porn With Plot",
        "Pre Climax Climax",
        "Professional Sex Ed",
        "Quest For Sex",
        "Rape Pillage And Burn",
        "Reincarnation Romance",
        "Right Through His Pants",
        "School of Seduction",
        "Screw Yourself",
        "Settled For Gay",
        "Sex Is Evil And I Am Horny",
        "Sexbot",
        "Shameful Strip",
        "Shapeshifting Seducer",
        "Slave Collar",
        "Sleep With Everyone But You",
        "Sleeping With The Boss",
        "Stalker With A Test Tube",
        "Suprise Asshole",
        "Take A Third Option",
        "The Boobfall",
        "The Legions Of Hell",
        "The Pornomancer",
        "The Problem With Pen Island",
        "There Is No Kill Like Overkill",
        "Twin Switch",
        "Unfortunate Names",
        "Whip It Good",
        "Yandere"
    ]
}
